<?xml version="1.0" encoding="iso-8859-1"?>
<!-- Generator: Adobe Illustrator 19.0.0, SVG Export Plug-In . SVG Version: 6.00 Build 0)  -->
<svg version="1.1" id="Capa_1" xmlns="http://www.w3.org/2000/svg" xmlns:xlink="http://www.w3.org/1999/xlink" x="0px" y="0px"
	 viewBox="0 0 358.8 358.8" style="enable-background:new 0 0 358.8 358.8;" xml:space="preserve">
<g>
	<g>
		<path d="M346,59.6h-29.2v-44c0-2.4-1.2-4.8-3.6-6.4c-2.4-1.2-4.8-1.2-7.2,0l-30.8,18.4l-14.8-24c-1.2-2-3.6-3.6-6-3.6
			c-2.4,0-4.8,1.2-6,3.6l-14.8,24l-30.4-18c-2.4-1.2-4.8-1.2-7.2,0c-2.4,1.2-3.6,3.6-3.6,6.4v44H12.8c-4,0-7.2,3.2-7.2,7.2v284.4
			c0,4,3.2,7.2,7.2,7.2H346c4,0,7.2-3.2,7.2-7.2V66.8C353.2,62.8,350,59.6,346,59.6z M206.8,28.4l25.6,15.2c3.2,2,7.6,0.8,9.6-2.4
			l12-19.6l12,19.6c2,3.2,6.4,4.4,9.6,2.4l25.6-15.2V130h-94.4V28.4z M338.8,344.4H20v-73.2h318.8V344.4z M338.8,256.8H20V74h172.4
			v63.2c0,4,3.2,7.2,7.2,7.2h109.6c4,0,7.2-3.2,7.2-7.2V74h22.4V256.8z"/>
	</g>
</g>
<g>
	<g>
		<path d="M173.6,92H48c-4,0-7.2,3.2-7.2,7.2v38c0,4,3.2,7.2,7.2,7.2h125.6c4,0,7.2-3.2,7.2-7.2v-38C180.8,95.2,177.6,92,173.6,92z
			 M166,130H54.8v-23.6H166V130z"/>
	</g>
</g>
<g>
	<g>
		<circle cx="236.4" cy="179.2" r="15.6"/>
	</g>
</g>
<g>
	<g>
		<circle cx="236.4" cy="224.8" r="15.6"/>
	</g>
</g>
<g>
	<g>
		<circle cx="179.2" cy="179.2" r="15.6"/>
	</g>
</g>
<g>
	<g>
		<circle cx="179.2" cy="224.8" r="15.6"/>
	</g>
</g>
<g>
	<g>
		<circle cx="293.6" cy="179.2" r="15.6"/>
	</g>
</g>
<g>
	<g>
		<circle cx="293.6" cy="224.8" r="15.6"/>
	</g>
</g>
<g>
	<g>
		<circle cx="122" cy="179.2" r="15.6"/>
	</g>
</g>
<g>
	<g>
		<circle cx="122" cy="224.8" r="15.6"/>
	</g>
</g>
<g>
	<g>
		<circle cx="64.8" cy="179.2" r="15.6"/>
	</g>
</g>
<g>
	<g>
		<circle cx="64.8" cy="224.8" r="15.6"/>
	</g>
</g>
<g>
	<g>
		<path d="M179.2,278.8c-16,0-28.8,12.8-28.8,28.8s12.8,28.8,28.8,28.8s28.8-12.8,28.8-28.8S195.2,278.8,179.2,278.8z M179.2,322
			c-8,0-14.4-6.4-14.4-14.4s6.4-14.4,14.4-14.4s14.4,6.4,14.4,14.4S187.2,322,179.2,322z"/>
	</g>
</g>
<g>
</g>
<g>
</g>
<g>
</g>
<g>
</g>
<g>
</g>
<g>
</g>
<g>
</g>
<g>
</g>
<g>
</g>
<g>
</g>
<g>
</g>
<g>
</g>
<g>
</g>
<g>
</g>
<g>
</g>
</svg>
