<svg xmlns="http://www.w3.org/2000/svg" width="13" height="19" viewBox="0 0 13 19">
  <g id="location" transform="translate(-5.5 -2.5)">
    <path id="Trazado_47" data-name="Trazado 47" d="M12,21q6-6.3,6-12A6,6,0,0,0,6,9Q6,14.7,12,21Z" fill="none" stroke="#707070" stroke-linecap="round" stroke-linejoin="round" stroke-width="1"/>
    <circle id="Elipse_6" data-name="Elipse 6" cx="1" cy="1" r="1" transform="translate(11 8)" fill="none" stroke="#707070" stroke-linecap="round" stroke-linejoin="round" stroke-width="1"/>
  </g>
</svg>
