<svg xmlns="http://www.w3.org/2000/svg" width="19" height="17" viewBox="0 0 19 17">
  <defs>
    <style>
      .cls-1 {
        fill: none;
        stroke: #cecece;
        stroke-linecap: square;
      }
    </style>
  </defs>
  <g id="suitcase-alt" transform="translate(-2.5 -2.5)">
    <rect id="Rectángulo_175" data-name="Rectángulo 175" class="cls-1" width="18" height="12" transform="translate(3 7)"/>
    <rect id="Rectángulo_176" data-name="Rectángulo 176" class="cls-1" width="8" height="16" transform="translate(8 3)"/>
  </g>
</svg>
