<?xml version="1.0" encoding="utf-8"?>
<!-- Generator: Adobe Illustrator 24.0.2, SVG Export Plug-In . SVG Version: 6.00 Build 0)  -->
<svg version="1.1" id="Capa_1" xmlns="http://www.w3.org/2000/svg" xmlns:xlink="http://www.w3.org/1999/xlink" x="0px" y="0px"
	 viewBox="0 0 30.1 30.1" style="enable-background:new 0 0 30.1 30.1;" xml:space="preserve">
<style type="text/css">
	.st0{fill:none;stroke:#000000;stroke-linecap:round;}
</style>
<title  id="boxIconTitle">Box</title>
<g>
	<polygon class="st0" points="19.6,5.1 28.6,10.1 28.6,20.1 19.6,25.1 10.6,20.1 10.6,10.1 	"/>
	<polyline class="st0" points="10.6,10.1 19.6,15.1 28.6,10.1 	"/>
	<path class="st0" d="M19.6,15.1v10"/>
	<line class="st0" x1="1.5" y1="15.5" x2="8.3" y2="15.5"/>
	<line class="st0" x1="4.6" y1="12.6" x2="8.7" y2="12.6"/>
	<line class="st0" x1="4.8" y1="18.3" x2="8.9" y2="18.3"/>
</g>
</svg>
