<?xml version="1.0" encoding="utf-8"?>
<!-- Generator: Adobe Illustrator 24.0.2, SVG Export Plug-In . SVG Version: 6.00 Build 0)  -->
<svg version="1.1" id="Capa_1" xmlns="http://www.w3.org/2000/svg" xmlns:xlink="http://www.w3.org/1999/xlink" x="0px" y="0px"
	 viewBox="0 0 400 400" style="enable-background:new 0 0 400 400;" xml:space="preserve">
<style type="text/css">
	.st0{fill:#FFFFFF;}
	.st1{fill-rule:evenodd;clip-rule:evenodd;}
</style>
<g>
	<path d="M26.13,344.76v-24.29H19v-7.52h22.93v7.52H34.8v24.29H26.13z"/>
	<path d="M46.38,344.76v-31.81h8.76v31.81H46.38z"/>
	<path d="M62.13,344.76v-31.81h19.49v6.97H70.59v5.52H81v6.82H70.59v5.37h11.04v7.13H62.13z"/>
	<path d="M87.36,344.76v-31.81h8.37l12.02,16.36c0.23,0.33,0.61,1,1.14,2.01c0.53,1.01,1.11,2.21,1.75,3.6
		c-0.17-1.32-0.3-2.49-0.38-3.52c-0.08-1.03-0.12-1.94-0.12-2.74v-15.71h8.32v31.81h-8.32l-12.02-16.43c-0.25-0.33-0.63-1-1.16-2.01
		c-0.53-1.01-1.1-2.19-1.73-3.55c0.17,1.33,0.3,2.51,0.38,3.54c0.08,1.03,0.12,1.94,0.12,2.74v15.71H87.36z"/>
	<path d="M125.28,344.76v-31.81h6.63c4.94,0,8.43,0.23,10.49,0.7c2.05,0.46,3.85,1.24,5.4,2.32c2.01,1.41,3.54,3.2,4.59,5.4
		c1.04,2.2,1.56,4.7,1.56,7.51c0,2.81-0.52,5.31-1.56,7.51c-1.04,2.2-2.57,4-4.59,5.4c-1.53,1.07-3.29,1.84-5.26,2.29
		c-1.97,0.46-5.03,0.68-9.17,0.68h-1.46H125.28z M133.87,337.63h1.46c3.4,0,5.89-0.7,7.45-2.1c1.56-1.4,2.35-3.62,2.35-6.66
		c0-3.04-0.78-5.27-2.35-6.69c-1.57-1.42-4.05-2.13-7.45-2.13h-1.46V337.63z"/>
	<path d="M154.86,344.76l10.97-31.81h10.86l11,31.81h-8.63l-1.61-5.69h-12.32l-1.65,5.69H154.86z M167,332.88h8.63l-3.24-10.5
		c-0.1-0.32-0.24-0.83-0.41-1.54s-0.4-1.62-0.67-2.74c-0.19,0.78-0.37,1.53-0.55,2.24c-0.18,0.71-0.37,1.39-0.55,2.04L167,332.88z"
		/>
	<path d="M237.32,328.92c0,2.29-0.42,4.43-1.26,6.43c-0.84,2-2.06,3.79-3.67,5.37c-1.62,1.57-3.48,2.77-5.56,3.62
		c-2.09,0.85-4.25,1.27-6.5,1.27c-2.27,0-4.45-0.42-6.53-1.27c-2.08-0.85-3.91-2.05-5.49-3.62c-1.64-1.58-2.88-3.38-3.73-5.39
		c-0.85-2.01-1.27-4.15-1.27-6.41c0-2.27,0.42-4.41,1.27-6.42c0.85-2.01,2.09-3.8,3.73-5.38c1.58-1.57,3.41-2.77,5.49-3.62
		c2.08-0.85,4.25-1.27,6.53-1.27c2.26,0,4.44,0.42,6.53,1.27c2.09,0.85,3.94,2.05,5.53,3.62c1.59,1.56,2.81,3.35,3.66,5.37
		C236.9,324.5,237.32,326.65,237.32,328.92z M220.33,338.27c2.4,0,4.39-0.88,5.97-2.65c1.57-1.77,2.36-4,2.36-6.69
		c0-2.67-0.8-4.89-2.39-6.67c-1.59-1.78-3.57-2.67-5.93-2.67c-2.4,0-4.39,0.89-5.97,2.66c-1.57,1.77-2.36,4-2.36,6.68
		c0,2.72,0.78,4.96,2.32,6.71C215.88,337.39,217.88,338.27,220.33,338.27z"/>
	<path d="M242.75,344.76v-31.81h8.37l12.02,16.36c0.23,0.33,0.61,1,1.14,2.01c0.53,1.01,1.11,2.21,1.75,3.6
		c-0.17-1.32-0.3-2.49-0.38-3.52c-0.08-1.03-0.12-1.94-0.12-2.74v-15.71h8.32v31.81h-8.32l-12.02-16.43c-0.25-0.33-0.63-1-1.16-2.01
		c-0.53-1.01-1.1-2.19-1.73-3.55c0.17,1.33,0.3,2.51,0.38,3.54c0.08,1.03,0.12,1.94,0.12,2.74v15.71H242.75z"/>
	<path d="M280.67,344.76v-31.81h8.67v24.38h10.78v7.43H280.67z"/>
	<path d="M304.58,344.76v-31.81h8.76v31.81H304.58z"/>
	<path d="M320.33,344.76v-31.81h8.37l12.02,16.36c0.23,0.33,0.61,1,1.14,2.01c0.53,1.01,1.11,2.21,1.75,3.6
		c-0.17-1.32-0.3-2.49-0.38-3.52c-0.08-1.03-0.12-1.94-0.12-2.74v-15.71h8.32v31.81h-8.32l-12.02-16.43c-0.25-0.33-0.63-1-1.16-2.01
		c-0.53-1.01-1.1-2.19-1.73-3.55c0.17,1.33,0.3,2.51,0.38,3.54c0.08,1.03,0.12,1.94,0.12,2.74v15.71H320.33z"/>
	<path d="M358.25,344.76v-31.81h19.49v6.97H366.7v5.52h10.41v6.82H366.7v5.37h11.04v7.13H358.25z"/>
	<path d="M109.55,181.23L109.55,181.23c0.01,0.04,0.02,0.07,0.03,0.11c0.29,1.01,0.6,2.01,0.92,3.01h0.01
		c6.05,18.61,17.87,34.67,33.34,46.02v-36.2h-11.44v8.54c-4.01-5.62-7.32-11.79-9.79-18.36H152v51.36
		c8.94,5.21,15.75,8.41,26.25,10.37v-11.66c-6.26-1.34-9.18-2.86-14.81-5.57v-44.5h22.2v62.99c4.12,0.57,8.33,0.86,12.6,0.86
		c9.36,0,18.41-1.41,26.93-4.03v-59.81h8.15v56.88c19.58-8.1,35.8-22.77,45.89-41.22l-15.65-15.66h22.41
		c0.59-1.83,1.14-3.69,1.62-5.58H108.88C109.09,179.59,109.32,180.41,109.55,181.23z M244.76,184.34h2.63l17.36,17.36
		c-5.42,7.85-12.2,14.71-19.99,20.22V184.34z M197.07,184.34h16.66v50.91c-5.02,0.98-10.21,1.5-15.5,1.5
		c-0.39,0-0.77-0.01-1.16-0.01V184.34z"/>
	<path d="M233.32,70.72v57.03h-8.15V67.79c-3.72-1.14-7.53-2.06-11.44-2.72v62.69h-16.66V63.76c-3.88,0.05-7.69,0.34-11.44,0.85
		v63.14h-22.2V70.59c-3.96,1.62-7.78,3.51-11.44,5.64v51.52h-29.43c2.48-6.62,5.81-12.84,9.85-18.51v12.18h11.44V81.58
		c-15.52,11.38-27.35,27.49-33.39,46.17h-0.01c-0.22,0.69-0.43,1.38-0.64,2.08c-0.05,0.18-0.11,0.36-0.17,0.54h0.01
		c-0.29,0.98-0.56,1.97-0.81,2.96h178.79c-0.48-1.89-1.02-3.75-1.61-5.58H263.4l15.81-15.81C269.12,93.48,252.9,78.82,233.32,70.72z
		 M247.23,127.75h-2.47V90.01c7.79,5.51,14.56,12.36,19.99,20.22L247.23,127.75z"/>
	<path d="M130.6,145.9c-1.61,0-2.73,0.38-3.36,1.14c-0.63,0.76-0.95,2.12-0.95,4.07v9.74c0,1.93,0.31,3.27,0.92,4.03
		c0.62,0.76,1.75,1.14,3.39,1.14c1.61,0,2.73-0.38,3.36-1.14c0.64-0.76,0.95-2.1,0.95-4.03v-9.74c0-1.93-0.31-3.28-0.95-4.05
		C133.33,146.29,132.2,145.9,130.6,145.9z"/>
	<path d="M263.42,159.76h2.94c0.99,0,1.4-0.36,1.23-1.07l-2.48-9.93c-0.07-0.15-0.18-0.23-0.32-0.23c-0.14,0-0.23,0.09-0.26,0.26
		l-2.39,9.97C261.96,159.43,262.39,159.76,263.42,159.76z"/>
	<path d="M108.03,136.81c-1.32,6.18-2.01,12.59-2.01,19.16c0,6.57,0.7,12.98,2.01,19.16h180.41c1.32-6.18,2.02-12.59,2.02-19.16
		c0-6.56-0.7-12.97-2.02-19.16h-95.29H108.03z M140.66,160.9c0,2.92-0.7,5.06-2.1,6.43c-1.78,1.75-4.43,2.63-7.95,2.63
		c-3.63,0-6.26-0.88-7.9-2.63c-1.41-1.5-2.1-3.64-2.1-6.43v-9.85c0-2.89,0.7-5.05,2.1-6.47c1.71-1.72,4.34-2.59,7.9-2.59
		c3.7,0,6.35,0.86,7.95,2.59c1.4,1.5,2.1,3.65,2.1,6.47V160.9z M164.27,168.48c0,0.7-0.48,1.05-1.44,1.05h-14.06
		c-0.96,0-1.44-0.35-1.44-1.06v-25c0-0.73,0.48-1.1,1.44-1.1h2.72c1.02,0,1.54,0.37,1.54,1.11v21.12c0,0.74,0.46,1.1,1.39,1.1h8.42
		c0.96,0,1.44,0.36,1.44,1.09V168.48z M175.09,168.51c0,0.25-0.16,0.49-0.49,0.7c-0.33,0.21-0.66,0.32-1,0.32h-2.77
		c-0.34,0-0.67-0.1-0.98-0.3c-0.31-0.2-0.46-0.44-0.46-0.72v-25.08c0-0.71,0.48-1.07,1.44-1.07h2.82c0.34,0,0.67,0.11,0.98,0.32
		c0.31,0.21,0.46,0.45,0.46,0.7V168.51z M254.18,168.43l6.52-25.04c0.17-0.68,0.74-1.03,1.69-1.03h4.88c0.99,0,1.59,0.37,1.79,1.1
		l6.78,24.96c0.17,0.74-0.26,1.1-1.28,1.1h-2.7c-0.95,0-1.53-0.37-1.73-1.11l-1.05-3.68c-0.24-0.76-0.84-1.14-1.8-1.14h-4.89
		c-0.38,0-0.74,0.12-1.08,0.36c-0.34,0.24-0.55,0.5-0.62,0.78l-0.97,3.73c-0.21,0.71-0.78,1.07-1.74,1.07h-2.67
		C254.35,169.53,253.98,169.17,254.18,168.43z M243.05,143.43c0-0.71,0.47-1.07,1.43-1.07h2.82c0.34,0,0.67,0.11,0.98,0.32
		c0.31,0.21,0.46,0.45,0.46,0.7v25.12c0,0.25-0.16,0.49-0.49,0.7c-0.33,0.21-0.66,0.32-1,0.32h-2.77c-0.34,0-0.67-0.1-0.97-0.3
		c-0.31-0.2-0.46-0.44-0.46-0.72V143.43z M216.67,143.47c0-0.28,0.15-0.53,0.44-0.76c0.29-0.23,0.62-0.34,1-0.34h7.95
		c3.52,0,6.09,0.58,7.7,1.75c1.95,1.42,2.93,3.49,2.93,6.2c0,2.84-0.86,4.92-2.57,6.24c-1.72,1.32-4.41,1.98-8.09,1.98h-2.32
		c-0.96,0-1.44,0.38-1.44,1.14v8.79c0,0.71-0.51,1.06-1.53,1.06h-2.7c-0.91,0-1.37-0.34-1.37-1.03V143.47z M196.15,157.78
		c0.12,0,0.22-0.09,0.28-0.27l4.46-14.04c0.24-0.73,0.86-1.1,1.85-1.1h5.19c1.03,0,1.55,0.37,1.55,1.1v25c0,0.3-0.16,0.56-0.49,0.76
		c-0.32,0.2-0.67,0.3-1.05,0.3h-2.41c-0.96,0-1.43-0.36-1.43-1.1v-17.47c0-0.18-0.05-0.27-0.15-0.27c-0.07,0-0.14,0.09-0.21,0.27
		l-5.54,17.47c-0.24,0.74-0.84,1.1-1.8,1.1h-0.52c-1.02,0-1.64-0.35-1.84-1.06l-5.49-17.54c-0.07-0.18-0.14-0.27-0.21-0.27
		c-0.1,0-0.15,0.09-0.15,0.27v17.51c0,0.3-0.16,0.56-0.46,0.78c-0.31,0.21-0.65,0.32-1.03,0.32h-2.46c-0.38,0-0.71-0.11-1-0.34
		c-0.29-0.23-0.44-0.48-0.44-0.76v-25c0-0.71,0.48-1.07,1.44-1.07h5.39c0.96,0,1.56,0.37,1.8,1.1l4.44,14.04
		C195.93,157.69,196.02,157.78,196.15,157.78z"/>
	<path d="M223.71,154.69h1.03c2.27,0,3.85-0.3,4.72-0.9c0.88-0.6,1.32-1.67,1.32-3.21c0-1.69-0.43-2.84-1.27-3.46
		c-0.84-0.61-2.44-0.92-4.77-0.92h-1.03c-0.96,0-1.44,0.37-1.44,1.11v6.3C222.26,154.34,222.74,154.69,223.71,154.69z"/>
	<path d="M292.49,61.82c-12.02-12.02-32.29-10.71-48-17.22c-15.7-6.5-29.12-21.77-46.11-21.76c-17,0-30.42,15.26-46.12,21.76
		c-15.71,6.51-36.25,4.94-48.27,16.96l0.27,0.27c-12.02,12.02-10.71,32.3-17.22,48c-6.51,15.71-21.76,29.12-21.76,46.12
		c-0.01,17,15.26,30.41,21.76,46.11c6.51,15.71,5.2,35.98,17.22,48c12.02,12.02,32.3,10.71,48,17.22
		c15.7,6.5,29.12,21.76,46.12,21.77c16.99,0,30.41-15.26,46.12-21.77c15.7-6.5,35.98-5.2,48-17.22c12.02-12.02,10.71-32.3,17.22-48
		c6.5-15.7,21.76-29.12,21.76-46.12c0-17-15.26-30.41-21.77-46.12C303.2,94.11,304.51,73.84,292.49,61.82z M269.56,227.13
		c-39.96,39.96-104.46,40.47-143.8,1.14c-39.33-39.33-38.82-103.84,1.14-143.8C166.87,44.51,231.37,44,270.7,83.33
		C310.03,122.67,309.52,187.17,269.56,227.13z"/>
	<g>
		<path d="M25.63,376.81V362.7h5.94c1.52,0,2.66,0.36,3.4,1.07c0.75,0.71,1.12,1.71,1.12,3.01c0,1.46-0.44,2.57-1.32,3.33
			c-0.65,0.56-1.72,0.84-3.2,0.84h-4.05v5.85H25.63z M27.52,369.3h3.85c0.71,0,1.25-0.08,1.63-0.24c0.38-0.17,0.68-0.44,0.88-0.84
			c0.2-0.39,0.3-0.87,0.3-1.44c0-0.8-0.22-1.4-0.66-1.81c-0.44-0.41-1.16-0.61-2.16-0.61h-3.85V369.3z"/>
		<path d="M39.02,376.81V362.7h6.44c1.09,0,1.96,0.13,2.61,0.4c0.66,0.27,1.17,0.7,1.55,1.3c0.37,0.6,0.56,1.29,0.56,2.07
			c0,0.9-0.18,1.61-0.53,2.15c-0.35,0.53-0.84,0.95-1.46,1.25c0.56,0.2,0.98,0.51,1.26,0.9c0.28,0.4,0.43,0.98,0.45,1.76l0.07,1.89
			c0.03,0.58,0.05,0.94,0.08,1.1c0.04,0.22,0.12,0.41,0.22,0.56c0.1,0.16,0.26,0.29,0.46,0.41v0.32h-2.35
			c-0.08-0.23-0.13-0.43-0.15-0.61c-0.04-0.24-0.08-0.56-0.1-0.98l-0.1-2.16c-0.03-0.61-0.13-1.07-0.29-1.37
			c-0.16-0.3-0.42-0.53-0.78-0.69c-0.36-0.16-0.92-0.24-1.7-0.24h-4.35v6.06H39.02z M40.91,369.17h4.21c0.81,0,1.37-0.05,1.7-0.16
			c0.47-0.15,0.82-0.38,1.03-0.69c0.28-0.41,0.41-0.94,0.41-1.6c0-0.86-0.28-1.51-0.84-1.93c-0.38-0.29-1.01-0.43-1.88-0.43h-4.63
			V369.17z"/>
		<path d="M65.65,369.67c0,1.16-0.19,2.24-0.58,3.25c-0.48,1.27-1.27,2.3-2.36,3.08c-1.09,0.78-2.44,1.17-4.05,1.17
			c-1.35,0-2.53-0.28-3.55-0.85c-1.01-0.57-1.81-1.41-2.38-2.53c-0.57-1.12-0.86-2.45-0.86-3.99c0-1.11,0.16-2.14,0.47-3.07
			c0.31-0.93,0.78-1.72,1.39-2.38c0.61-0.66,1.34-1.15,2.19-1.49c0.84-0.34,1.79-0.51,2.83-0.51c1.04,0,1.97,0.17,2.81,0.5
			c0.84,0.34,1.55,0.81,2.13,1.42c0.58,0.61,1.02,1.3,1.33,2.07C65.45,367.36,65.65,368.47,65.65,369.67z M63.73,369.81
			c0-1.85-0.46-3.28-1.39-4.29s-2.12-1.51-3.57-1.51c-1.59,0-2.81,0.54-3.68,1.62c-0.86,1.08-1.3,2.47-1.3,4.17
			c0,1.23,0.21,2.28,0.64,3.16c0.43,0.88,1.01,1.52,1.75,1.92c0.74,0.4,1.6,0.6,2.58,0.6c1.11,0,2.04-0.25,2.81-0.75
			c0.76-0.5,1.32-1.19,1.65-2.06C63.56,371.81,63.73,370.85,63.73,369.81z"/>
		<path d="M67.87,376.81V362.7h5.53c0.9,0,1.7,0.12,2.39,0.37c0.69,0.25,1.34,0.68,1.93,1.31c0.6,0.63,1.04,1.37,1.33,2.23
			c0.29,0.85,0.44,1.83,0.44,2.94c0,1.27-0.19,2.42-0.58,3.43c-0.39,1.01-0.9,1.83-1.52,2.43c-0.47,0.45-1.12,0.82-1.93,1.1
			c-0.56,0.19-1.27,0.29-2.13,0.29H67.87z M69.76,375.15h3.33c0.54,0,1-0.04,1.37-0.13c0.38-0.1,0.75-0.25,1.12-0.46
			c0.37-0.21,0.67-0.48,0.91-0.8c0.32-0.43,0.58-1,0.79-1.7c0.2-0.7,0.31-1.5,0.31-2.38c0-0.93-0.11-1.75-0.33-2.44
			c-0.22-0.69-0.52-1.25-0.9-1.67c-0.38-0.42-0.83-0.73-1.34-0.92c-0.51-0.2-1.15-0.29-1.92-0.29h-3.33V375.15z"/>
		<path d="M82.15,362.7h1.89v8.72c0,1.06,0.11,1.85,0.32,2.36c0.21,0.51,0.6,0.93,1.17,1.24c0.56,0.32,1.28,0.48,2.14,0.48
			c1.23,0,2.15-0.32,2.77-0.96c0.62-0.64,0.93-1.68,0.93-3.11v-8.72h1.89v8.56c0,1.28-0.19,2.34-0.58,3.18
			c-0.39,0.84-1.02,1.51-1.9,1.99c-0.88,0.49-1.96,0.73-3.23,0.73c-0.82,0-1.54-0.09-2.15-0.28c-0.61-0.19-1.12-0.45-1.53-0.78
			c-0.41-0.33-0.73-0.7-0.98-1.1c-0.18-0.3-0.35-0.73-0.5-1.3c-0.15-0.57-0.23-1.38-0.23-2.44V362.7z"/>
		<path d="M105.22,366.89c-0.17-0.56-0.39-1.02-0.64-1.36c-0.35-0.47-0.79-0.84-1.34-1.1c-0.55-0.27-1.18-0.4-1.88-0.4
			c-0.92,0-1.74,0.22-2.44,0.67c-0.71,0.44-1.27,1.1-1.68,1.97c-0.41,0.87-0.62,1.91-0.62,3.13c0,1.81,0.44,3.22,1.33,4.21
			c0.89,1,1.97,1.5,3.24,1.5c1.05,0,1.96-0.33,2.72-1c0.76-0.67,1.24-1.58,1.44-2.73h1.82c-0.11,0.87-0.34,1.63-0.68,2.27
			s-0.77,1.2-1.3,1.67c-0.53,0.47-1.12,0.84-1.78,1.09c-0.66,0.25-1.42,0.38-2.3,0.38c-1.12,0-2.07-0.2-2.85-0.59
			c-0.78-0.4-1.42-0.9-1.91-1.5c-0.5-0.6-0.87-1.26-1.12-1.97c-0.35-0.99-0.52-2.06-0.52-3.22c0-1.5,0.27-2.83,0.8-4
			c0.53-1.17,1.31-2.05,2.33-2.64c1.02-0.59,2.18-0.89,3.48-0.89c1.05,0,2.01,0.2,2.89,0.6c0.88,0.4,1.59,1,2.12,1.81
			c0.38,0.58,0.63,1.29,0.75,2.13H105.22z"/>
		<path d="M108.4,364.35v-1.65h11.48v1.65h-4.79v12.46h-1.89v-12.46H108.4z"/>
		<path d="M133.02,369.67c0,1.16-0.19,2.24-0.58,3.25c-0.48,1.27-1.27,2.3-2.36,3.08c-1.09,0.78-2.44,1.17-4.05,1.17
			c-1.35,0-2.53-0.28-3.55-0.85c-1.01-0.57-1.81-1.41-2.38-2.53c-0.57-1.12-0.86-2.45-0.86-3.99c0-1.11,0.16-2.14,0.47-3.07
			c0.31-0.93,0.78-1.72,1.39-2.38c0.61-0.66,1.34-1.15,2.19-1.49c0.84-0.34,1.79-0.51,2.83-0.51c1.04,0,1.97,0.17,2.81,0.5
			c0.84,0.34,1.55,0.81,2.13,1.42c0.58,0.61,1.02,1.3,1.33,2.07C132.81,367.36,133.02,368.47,133.02,369.67z M131.1,369.81
			c0-1.85-0.46-3.28-1.39-4.29c-0.93-1.01-2.12-1.51-3.57-1.51c-1.59,0-2.81,0.54-3.68,1.62c-0.86,1.08-1.3,2.47-1.3,4.17
			c0,1.23,0.21,2.28,0.64,3.16c0.43,0.88,1.01,1.52,1.75,1.92c0.74,0.4,1.6,0.6,2.58,0.6c1.11,0,2.04-0.25,2.81-0.75
			c0.76-0.5,1.32-1.19,1.65-2.06S131.1,370.85,131.1,369.81z"/>
		<path d="M153.77,369.67c0,1.16-0.19,2.24-0.58,3.25c-0.48,1.27-1.27,2.3-2.36,3.08s-2.44,1.17-4.05,1.17
			c-1.35,0-2.53-0.28-3.55-0.85c-1.01-0.57-1.81-1.41-2.38-2.53c-0.57-1.12-0.86-2.45-0.86-3.99c0-1.11,0.16-2.14,0.47-3.07
			c0.31-0.93,0.78-1.72,1.39-2.38c0.61-0.66,1.34-1.15,2.19-1.49c0.84-0.34,1.79-0.51,2.83-0.51c1.04,0,1.97,0.17,2.81,0.5
			c0.84,0.34,1.55,0.81,2.13,1.42c0.58,0.61,1.02,1.3,1.33,2.07C153.57,367.36,153.77,368.47,153.77,369.67z M151.85,369.81
			c0-1.85-0.46-3.28-1.39-4.29c-0.93-1.01-2.12-1.51-3.57-1.51c-1.59,0-2.81,0.54-3.68,1.62c-0.86,1.08-1.3,2.47-1.3,4.17
			c0,1.23,0.21,2.28,0.64,3.16c0.43,0.88,1.01,1.52,1.75,1.92c0.74,0.4,1.6,0.6,2.58,0.6c1.11,0,2.04-0.25,2.81-0.75
			c0.76-0.5,1.32-1.19,1.65-2.06S151.85,370.85,151.85,369.81z"/>
		<path d="M156.21,376.81V362.7h9.78v1.65h-7.89v4.39h6.94v1.66h-6.94v6.41H156.21z"/>
		<path d="M168.32,376.81V362.7h1.89v14.11H168.32z"/>
		<path d="M183.28,366.89c-0.17-0.56-0.39-1.02-0.64-1.36c-0.35-0.47-0.79-0.84-1.34-1.1c-0.55-0.27-1.18-0.4-1.88-0.4
			c-0.92,0-1.74,0.22-2.44,0.67c-0.71,0.44-1.27,1.1-1.68,1.97c-0.41,0.87-0.62,1.91-0.62,3.13c0,1.81,0.44,3.22,1.33,4.21
			c0.89,1,1.97,1.5,3.24,1.5c1.05,0,1.96-0.33,2.72-1c0.76-0.67,1.24-1.58,1.44-2.73h1.82c-0.11,0.87-0.34,1.63-0.68,2.27
			c-0.34,0.64-0.77,1.2-1.3,1.67c-0.53,0.47-1.12,0.84-1.78,1.09c-0.66,0.25-1.42,0.38-2.3,0.38c-1.12,0-2.07-0.2-2.85-0.59
			c-0.78-0.4-1.42-0.9-1.91-1.5c-0.5-0.6-0.87-1.26-1.12-1.97c-0.35-0.99-0.52-2.06-0.52-3.22c0-1.5,0.27-2.83,0.8-4
			c0.53-1.17,1.31-2.05,2.33-2.64c1.02-0.59,2.18-0.89,3.48-0.89c1.05,0,2.01,0.2,2.89,0.6c0.88,0.4,1.59,1,2.12,1.81
			c0.38,0.58,0.63,1.29,0.75,2.13H183.28z"/>
		<path d="M187.98,376.81V362.7h1.89v14.11H187.98z"/>
		<path d="M202.48,376.81l-1.52-4.26h-5.5l-1.52,4.26h-2.03l5.31-14.11h2.16l5.12,14.11H202.48z M200.44,371.01l-2.23-6.25
			l-2.22,6.25H200.44z"/>
		<path d="M206.22,376.81V362.7h1.89v12.45h7.16v1.66H206.22z"/>
		<path d="M222.62,376.81V362.7h6.04c0.9,0,1.65,0.14,2.26,0.42c0.62,0.28,1.09,0.71,1.42,1.28c0.32,0.57,0.48,1.17,0.48,1.8
			c0,0.65-0.16,1.24-0.47,1.77c-0.31,0.53-0.78,0.94-1.41,1.22c0.74,0.28,1.3,0.63,1.7,1.07c0.57,0.63,0.85,1.42,0.85,2.38
			c0,0.57-0.1,1.1-0.29,1.6c-0.2,0.5-0.43,0.9-0.7,1.21c-0.28,0.31-0.57,0.55-0.89,0.73c-0.32,0.18-0.73,0.33-1.22,0.45
			c-0.5,0.12-1.14,0.18-1.92,0.18H222.62z M224.51,368.71h3.52c0.67,0,1.19-0.06,1.57-0.18c0.27-0.08,0.5-0.2,0.67-0.35
			c0.17-0.15,0.32-0.37,0.45-0.67c0.13-0.3,0.19-0.64,0.19-1.03c0-0.49-0.11-0.89-0.32-1.22c-0.21-0.33-0.51-0.56-0.9-0.7
			c-0.39-0.13-0.94-0.2-1.66-0.2h-3.52V368.71z M224.51,375.15h3.75c1.26,0,2.13-0.21,2.61-0.63c0.48-0.42,0.72-1.05,0.72-1.89
			c0-0.79-0.27-1.39-0.8-1.79c-0.53-0.4-1.37-0.6-2.52-0.6h-3.75V375.15z"/>
		<path d="M244.19,376.81l-1.52-4.26h-5.5l-1.52,4.26h-2.03l5.31-14.11h2.16l5.12,14.11H244.19z M242.15,371.01l-2.23-6.25
			l-2.22,6.25H242.15z"/>
		<path d="M248.58,372.27v0.98c0,0.79,0.17,1.36,0.52,1.71c0.35,0.36,0.88,0.53,1.6,0.53c0.79,0,1.37-0.19,1.73-0.58
			c0.36-0.38,0.54-1.04,0.54-1.98V362.7h1.89v10.14c0,0.68-0.06,1.24-0.19,1.69c-0.17,0.58-0.43,1.06-0.76,1.44
			c-0.33,0.39-0.77,0.68-1.3,0.89c-0.53,0.2-1.15,0.31-1.84,0.31c-0.9,0-1.65-0.16-2.26-0.48c-0.61-0.32-1.07-0.79-1.37-1.41
			c-0.22-0.46-0.33-1.09-0.33-1.88v-1.12H248.58z"/>
		<path d="M270.18,369.67c0,1.16-0.19,2.24-0.58,3.25c-0.48,1.27-1.27,2.3-2.36,3.08c-1.09,0.78-2.44,1.17-4.05,1.17
			c-1.35,0-2.53-0.28-3.55-0.85c-1.01-0.57-1.81-1.41-2.38-2.53c-0.57-1.12-0.86-2.45-0.86-3.99c0-1.11,0.16-2.14,0.47-3.07
			c0.31-0.93,0.78-1.72,1.39-2.38c0.61-0.66,1.34-1.15,2.19-1.49c0.84-0.34,1.79-0.51,2.83-0.51c1.04,0,1.97,0.17,2.81,0.5
			c0.84,0.34,1.55,0.81,2.13,1.42c0.58,0.61,1.02,1.3,1.33,2.07C269.98,367.36,270.18,368.47,270.18,369.67z M268.26,369.81
			c0-1.85-0.46-3.28-1.39-4.29c-0.93-1.01-2.12-1.51-3.57-1.51c-1.59,0-2.81,0.54-3.68,1.62c-0.86,1.08-1.3,2.47-1.3,4.17
			c0,1.23,0.21,2.28,0.64,3.16c0.43,0.88,1.01,1.52,1.75,1.92c0.74,0.4,1.6,0.6,2.58,0.6c1.11,0,2.04-0.25,2.81-0.75
			c0.76-0.5,1.32-1.19,1.65-2.06C268.1,371.81,268.26,370.85,268.26,369.81z"/>
		<path d="M277.86,376.81V362.7h1.89v12.45h7.16v1.66H277.86z"/>
		<path d="M289.12,376.81V362.7h1.89v14.11H289.12z"/>
		<path d="M294.29,376.81V362.7h2.26l7.12,11.42V362.7h1.81v14.11h-2.14l-7.23-11.42v11.42H294.29z"/>
		<path d="M318.28,366.89c-0.17-0.56-0.39-1.02-0.64-1.36c-0.35-0.47-0.79-0.84-1.34-1.1c-0.55-0.27-1.18-0.4-1.88-0.4
			c-0.92,0-1.74,0.22-2.44,0.67c-0.71,0.44-1.27,1.1-1.68,1.97c-0.41,0.87-0.62,1.91-0.62,3.13c0,1.81,0.44,3.22,1.33,4.21
			c0.89,1,1.97,1.5,3.24,1.5c1.05,0,1.96-0.33,2.72-1c0.76-0.67,1.24-1.58,1.44-2.73h1.82c-0.11,0.87-0.34,1.63-0.68,2.27
			c-0.34,0.64-0.77,1.2-1.3,1.67c-0.53,0.47-1.12,0.84-1.78,1.09c-0.66,0.25-1.42,0.38-2.3,0.38c-1.12,0-2.07-0.2-2.85-0.59
			c-0.78-0.4-1.42-0.9-1.91-1.5c-0.5-0.6-0.87-1.26-1.12-1.97c-0.35-0.99-0.52-2.06-0.52-3.22c0-1.5,0.27-2.83,0.8-4
			c0.53-1.17,1.31-2.05,2.33-2.64c1.02-0.59,2.18-0.89,3.48-0.89c1.05,0,2.01,0.2,2.89,0.6c0.88,0.4,1.59,1,2.12,1.81
			c0.38,0.58,0.63,1.29,0.75,2.13H318.28z"/>
		<path d="M322.65,376.81V362.7h10.3v1.65h-8.41v4.36h7.76v1.65h-7.76v4.79h8.54v1.66H322.65z"/>
		<path d="M335.79,376.81V362.7h2.26l7.12,11.42V362.7h1.81v14.11h-2.14l-7.23-11.42v11.42H335.79z"/>
		<path d="M359.78,366.89c-0.17-0.56-0.39-1.02-0.64-1.36c-0.35-0.47-0.79-0.84-1.34-1.1c-0.55-0.27-1.18-0.4-1.88-0.4
			c-0.92,0-1.74,0.22-2.44,0.67c-0.71,0.44-1.27,1.1-1.68,1.97c-0.41,0.87-0.62,1.91-0.62,3.13c0,1.81,0.44,3.22,1.33,4.21
			s1.97,1.5,3.24,1.5c1.05,0,1.95-0.33,2.72-1c0.76-0.67,1.24-1.58,1.44-2.73h1.82c-0.12,0.87-0.34,1.63-0.68,2.27
			c-0.34,0.64-0.77,1.2-1.3,1.67c-0.53,0.47-1.12,0.84-1.78,1.09c-0.66,0.25-1.42,0.38-2.3,0.38c-1.12,0-2.07-0.2-2.85-0.59
			c-0.78-0.4-1.42-0.9-1.91-1.5c-0.5-0.6-0.87-1.26-1.12-1.97c-0.35-0.99-0.52-2.06-0.52-3.22c0-1.5,0.26-2.83,0.8-4
			c0.53-1.17,1.31-2.05,2.33-2.64c1.02-0.59,2.18-0.89,3.48-0.89c1.05,0,2.01,0.2,2.89,0.6c0.88,0.4,1.59,1,2.12,1.81
			c0.38,0.58,0.63,1.29,0.75,2.13H359.78z"/>
		<path d="M364.47,376.81V362.7h1.89v14.11H364.47z"/>
		<path d="M378.97,376.81l-1.52-4.26h-5.5l-1.52,4.26h-2.03l5.31-14.11h2.16l5.12,14.11H378.97z M376.93,371.01l-2.23-6.25
			l-2.22,6.25H376.93z"/>
	</g>
</g>
</svg>
